{
  "languageserver": {
    "bash": {
      "command": "bash-language-server",
      "args": [
        "start"
      ],
      "filetypes": [
        "sh"
      ]
    },
    "efm": {
      "command": "efm-langserver",
      "args": [
        "-c",
        "$HOME/.config/efm-langserver/config.yaml"
      ],
      "filetypes": [
        "vim",
        "eruby",
        "markdown",
        "yaml"
      ]
    },
    "golang": {
      "command": "gopls",
      "rootPatterns": [
        "go.mod",
        ".vim/",
        ".git/",
        ".hg/"
      ],
      "filetypes": [
        "go"
      ]
    }
  },
  "python.jediPath": "~/.pyenv/versions/3.8.0/lib/python3.8/site-packages",
  "python.formatting.provider": "black",
  "python.linting.enabled": true,
  "python.linting.lintOnSave": true,
  "python.venvPath": "~/.pyenv",
  "python.formatting.blackPath": "~/.pyenv/shims/black",
  "coc.preferences.formatOnSaveFiletypes": [
    "python",
    "markdown",
    "Markdown",
    "html",
    "css",
    "sh",
    "json",
    "javascript",
    "typescript",
    "javascriptreact",
    "typescriptreact",
    "graphql",
    "go",
    "golang",
    "rs",
    "rust",
    "dart",
    "zsh",
    "bash",
    "shell"
  ],
  "eslint.autoFixOnSave": true,
  "eslint.filetypes": [
    "javascript",
    "javascriptreact",
    "jsx",
    "typescript",
    "typescriptreact",
    "tsx"
  ],
  "eslint.options": {
    "rules": {
      "object-curly-spacing": [
        1,
        "always"
      ],
      "no-console": "off",
      "react/jsx-indent-props": "off",
      "react/jsx-indent": "off",
      "import/extensions": "off",
      "import/no-unresolved": "off",
      "no-plusplus": "off",
      "no-bitwise": "off",
      "camelcase": "off"
    }
  },
  "prettier.eslintIntegration": true,
  "prettier.tslintIntegration": true,
  "prettier.formatterPriority": -1,
  "cSpell.ignoreWords": [
    "consts"
  ],
  "snippets.ultisnips.directories": [
    "UltiSnips",
    "gosnippets/UltiSnips"
  ],
  "cSpell.userWords": [
    "Biehler",
    "kivy",
    "magql",
    "moebius",
    "promisify"
  ],
  "snippets.extends": {
    "cpp": [
      "c"
    ],
    "javascriptreact": [
      "javascript"
    ],
    "typescript": [
      "javascript"
    ],
    "typescriptreact": [
      "javascript"
    ]
  },
  "sh.enable": true,
  "markdownlint.config": {
    "MD013": false
  },
  "cSpell.enabledLanguageIds": [
    "asciidoc",
    "c",
    "cpp",
    "csharp",
    "css",
    "en",
    "git-commit",
    "go",
    "handlebars",
    "haskell",
    "html",
    "jade",
    "java",
    "javascript",
    "javascriptreact",
    "json",
    "jsonc",
    "latex",
    "less",
    "markdown",
    "php",
    "plaintext",
    "pug",
    "python",
    "restructuredtext",
    "rust",
    "scala",
    "scss",
    "text",
    "typescript",
    "typescriptreact",
    "vim",
    "yaml",
    "yml"
  ]
}
